["preview", [], [
    ["Land_BagFence_01_short_green_F",-1,0,[0,-3,0.606966],180,[0,0,1]],
    ["Land_BagFence_01_short_green_F",0,0,[-1.84619,0.052002,0.0251708],[8.74228e-008,-1,0],[0,0,1]],
    ["Land_BagFence_01_long_green_F",0,0,[-0.890625,-0.266602,-0.0994611],[8.74228e-008,-1,0],[0,0,1]],
    ["Land_BagFence_01_end_green_F",0,0,[-2.25439,-0.286377,-0.0379944],[0,1,0],[0,0,1]],
    ["Land_BagFence_01_end_green_F",0,0,[0.63623,-0.220459,-0.117979],[8.74228e-008,-1,0],[0,0,1]],
    ["Land_Trench_01_grass_F",0,0,[-0.841797,-0.786133,-1.72543],[0.000190284,0.703511,0.710685],[6.213e-008,-0.710685,0.703511]],
    ["Land_Trench_01_grass_F",0,0,[-0.775391,0.703125,-1.6694],[7.2299e-008,-0.827004,0.562195],[-4.91487e-008,0.562195,0.827004]]
], (positionCameraToWorld [0, 0, 5]), getDirVisual Clib_Player] call FRL_Fortifications_fnc_compositionCreate;

// slap stuff in there and use RE, then modify positions or rotations as needed
